D:\Sofyen Trabelsi - Perso\Esprit\Intégration continue\timesheet-ci\src\main\java\tn\esprit\spring\entities\MissionExterne.java
D:\Sofyen Trabelsi - Perso\Esprit\Intégration continue\timesheet-ci\src\main\java\tn\esprit\spring\entities\TimesheetPK.java
D:\Sofyen Trabelsi - Perso\Esprit\Intégration continue\timesheet-ci\src\main\java\tn\esprit\spring\repository\UserRepository.java
D:\Sofyen Trabelsi - Perso\Esprit\Intégration continue\timesheet-ci\src\main\java\tn\esprit\spring\entities\Timesheet.java
D:\Sofyen Trabelsi - Perso\Esprit\Intégration continue\timesheet-ci\src\main\java\tn\esprit\spring\entities\Entreprise.java
D:\Sofyen Trabelsi - Perso\Esprit\Intégration continue\timesheet-ci\src\main\java\tn\esprit\spring\entities\Mission.java
D:\Sofyen Trabelsi - Perso\Esprit\Intégration continue\timesheet-ci\src\main\java\tn\esprit\spring\services\IEmployeService.java
D:\Sofyen Trabelsi - Perso\Esprit\Intégration continue\timesheet-ci\src\main\java\tn\esprit\spring\entities\Contrat.java
D:\Sofyen Trabelsi - Perso\Esprit\Intégration continue\timesheet-ci\src\main\java\tn\esprit\spring\repository\EmployeRepository.java
D:\Sofyen Trabelsi - Perso\Esprit\Intégration continue\timesheet-ci\src\main\java\tn\esprit\spring\entities\Employe.java
D:\Sofyen Trabelsi - Perso\Esprit\Intégration continue\timesheet-ci\src\main\java\tn\esprit\spring\entities\Role.java
D:\Sofyen Trabelsi - Perso\Esprit\Intégration continue\timesheet-ci\src\main\java\tn\esprit\spring\TimesheetApplication.java
D:\Sofyen Trabelsi - Perso\Esprit\Intégration continue\timesheet-ci\src\main\java\tn\esprit\spring\services\IUserService.java
D:\Sofyen Trabelsi - Perso\Esprit\Intégration continue\timesheet-ci\src\main\java\tn\esprit\spring\services\EmployeServiceImpl.java
D:\Sofyen Trabelsi - Perso\Esprit\Intégration continue\timesheet-ci\src\main\java\tn\esprit\spring\entities\User.java
D:\Sofyen Trabelsi - Perso\Esprit\Intégration continue\timesheet-ci\src\main\java\tn\esprit\spring\services\UserServiceImpl.java
D:\Sofyen Trabelsi - Perso\Esprit\Intégration continue\timesheet-ci\src\main\java\tn\esprit\spring\entities\Departement.java
